GLM 2024 - Bayes
…
Our posterior is literally made up of educated guesses by the algorithm

tidy_draws(fit.1.bayesian)

# A tibble: 4,000 × 14
   .chain .iteration .draw b_Intercept b_parent sigma lprior   lp__
    <int>      <int> <int>       <dbl>    <dbl> <dbl>  <dbl>  <dbl>
 1      1          1     1        21.4    0.684  2.18  -3.83 -2068.
 2      1          2     2        22.5    0.667  2.13  -3.82 -2069.
 3      1          3     3        18.2    0.730  2.22  -3.84 -2069.
 4      1          4     4        27.0    0.602  2.24  -3.85 -2068.
 5      1          5     5        20.3    0.699  2.24  -3.85 -2068.
 6      1          6     6        27.7    0.592  2.23  -3.84 -2068.
 7      1          7     7        25.6    0.622  2.22  -3.84 -2067.
 8      1          8     8        25.9    0.618  2.28  -3.86 -2067.
 9      1          9     9        24.4    0.638  2.35  -3.88 -2070.
10      1         10    10        23.9    0.648  2.12  -3.82 -2070.
# ℹ 3,990 more rows
# ℹ 6 more variables: accept_stat__ <dbl>, treedepth__ <dbl>, stepsize__ <dbl>,
#   divergent__ <dbl>, n_leapfrog__ <dbl>, energy__ <dbl>
…
